<?xml version="1.0" encoding="UTF-8" standalone="no"?>
<svg
   xmlns:dc="http://purl.org/dc/elements/1.1/"
   xmlns:cc="http://creativecommons.org/ns#"
   xmlns:rdf="http://www.w3.org/1999/02/22-rdf-syntax-ns#"
   xmlns:svg="http://www.w3.org/2000/svg"
   xmlns="http://www.w3.org/2000/svg"
   xmlns:sodipodi="http://sodipodi.sourceforge.net/DTD/sodipodi-0.dtd"
   xmlns:inkscape="http://www.inkscape.org/namespaces/inkscape"
   version="1.1"
   id="Layer_1"
   x="0px"
   y="0px"
   width="32.114815"
   height="32.115185"
   viewBox="5 -10 32.114815 43.355499"
   enable-background="new 0 0 100 100"
   xml:space="preserve"
   inkscape:version="0.91 r13725"
   sodipodi:docname="delete.svg"><metadata
     id="metadata3491"><rdf:RDF><cc:Work
         rdf:about=""><dc:format>image/svg+xml</dc:format><dc:type
           rdf:resource="http://purl.org/dc/dcmitype/StillImage" /><dc:title></dc:title></cc:Work></rdf:RDF></metadata><defs
     id="defs3489" /><sodipodi:namedview
     pagecolor="#ffffff"
     bordercolor="#666666"
     borderopacity="1"
     objecttolerance="10"
     gridtolerance="10"
     guidetolerance="10"
     inkscape:pageopacity="0"
     inkscape:pageshadow="2"
     inkscape:window-width="720"
     inkscape:window-height="480"
     id="namedview3487"
     showgrid="false"
     fit-margin-top="0"
     fit-margin-left="0"
     fit-margin-right="0"
     fit-margin-bottom="0"
     inkscape:zoom="2.36"
     inkscape:cx="19.761112"
     inkscape:cy="10.50222"
     inkscape:window-x="0"
     inkscape:window-y="0"
     inkscape:window-maximized="0"
     inkscape:current-layer="Layer_1" /><path
     d="m 26.714407,11.6775 14.849,-14.849 c 1.562,-1.562 1.562,-4.095 0,-5.657 -1.562,-1.562 -4.094,-1.562 -5.656,0 l -14.85,14.849 -14.8489996,-14.849 c -1.562,-1.562 -4.095,-1.562 -5.65700021,0 -1.56199999,1.562 -1.56199999,4.095 0,5.657 L 15.400407,11.6775 0.55140719,26.5275 c -1.56199999,1.562 -1.56199999,4.095 0,5.656 0.78100001,0.781 1.80500021,1.172 2.82900021,1.172 1.024,0 2.047,-0.391 2.829,-1.172 l 14.8479996,-14.849 14.85,14.849 c 0.781,0.781 1.805,1.172 2.828,1.172 1.023,0 2.047,-0.391 2.828,-1.172 1.562,-1.562 1.562,-4.095 0,-5.656 l -14.849,-14.85 z"
     id="path3481"
     inkscape:connector-curvature="0" /></svg>