<?xml version="1.0" encoding="UTF-8" standalone="no"?>
<svg
   xmlns:dc="http://purl.org/dc/elements/1.1/"
   xmlns:cc="http://creativecommons.org/ns#"
   xmlns:rdf="http://www.w3.org/1999/02/22-rdf-syntax-ns#"
   xmlns:svg="http://www.w3.org/2000/svg"
   xmlns="http://www.w3.org/2000/svg"
   xmlns:sodipodi="http://sodipodi.sourceforge.net/DTD/sodipodi-0.dtd"
   xmlns:inkscape="http://www.inkscape.org/namespaces/inkscape"
   version="1.1"
   id="Слой_1"
   x="0px"
   y="0px"
   viewBox="5 -10 66.666664 89.999997"
   enable-background="new 0 0 100 100"
   xml:space="preserve"
   height="66.666664"
   width="66.666664"
   inkscape:version="0.91 r13725"
   sodipodi:docname="zero.svg"><metadata
     id="metadata3483"><rdf:RDF><cc:Work
         rdf:about=""><dc:format>image/svg+xml</dc:format><dc:type
           rdf:resource="http://purl.org/dc/dcmitype/StillImage" /><dc:title></dc:title></cc:Work></rdf:RDF></metadata><defs
     id="defs3481" /><sodipodi:namedview
     pagecolor="#ffffff"
     bordercolor="#666666"
     borderopacity="1"
     objecttolerance="10"
     gridtolerance="10"
     guidetolerance="10"
     inkscape:pageopacity="0"
     inkscape:pageshadow="2"
     inkscape:window-width="1295"
     inkscape:window-height="779"
     id="namedview3479"
     showgrid="false"
     fit-margin-top="0"
     fit-margin-left="0"
     fit-margin-right="0"
     fit-margin-bottom="0"
     inkscape:zoom="6.54"
     inkscape:cx="24.804621"
     inkscape:cy="40.010191"
     inkscape:window-x="0"
     inkscape:window-y="0"
     inkscape:window-maximized="0"
     inkscape:current-layer="Слой_1" /><g
     id="g3469"
     transform="translate(-11.666667,-15)"><path
       d="M 50,5 C 25.2,5 5,25.2 5,50 5,74.8 25.2,95 50,95 74.8,95 95,74.8 95,50 95,25.2 74.8,5 50,5 Z m 0,80 C 30.7,85 15,69.3 15,50 15,30.7 30.7,15 50,15 69.3,15 85,30.7 85,50 85,69.3 69.3,85 50,85 Z"
       id="path3471"
       inkscape:connector-curvature="0" /><path
       d="m 50,25 c -8.3,0 -15,6.7 -15,15 l 0,20 c 0,8.3 6.7,15 15,15 8.3,0 15,-6.7 15,-15 L 65,40 C 65,31.7 58.3,25 50,25 Z m 5,35 c 0,2.8 -2.2,5 -5,5 -2.8,0 -5,-2.2 -5,-5 l 0,-20 c 0,-2.8 2.2,-5 5,-5 2.8,0 5,2.2 5,5 l 0,20 z"
       id="path3473"
       inkscape:connector-curvature="0" /></g></svg>